^C:\USERS\LAPTOP\DESKTOP\5 СЕМЕСТР\ОПЕРАЦИОННЫЕ СИСТЕМЫ\ПРАКТИЧЕСКИЕ РАБОТЫ\PRACTICE_1\WINDESKTOP\WINDESKTOP.CPP
C:\USERS\LAPTOP\DESKTOP\5 семестр\операционные системы\Практические работы\PRACTICE_1\WINDESKTOP\X64\DEBUG\VC143.PDB
C:\USERS\LAPTOP\DESKTOP\5 семестр\операционные системы\Практические работы\PRACTICE_1\WINDESKTOP\X64\DEBUG\VC143.IDB
C:\USERS\LAPTOP\DESKTOP\5 семестр\операционные системы\Практические работы\PRACTICE_1\WINDESKTOP\X64\DEBUG\WINDESKTOP.OBJ
