^C:\USERS\LAPTOP\DESKTOP\5 СЕМЕСТР\ОПЕРАЦИОННЫЕ СИСТЕМЫ\ПРАКТИЧЕСКИЕ РАБОТЫ\PRACTICE_1\WINDESKTOP\X64\DEBUG\WINDESKTOP.OBJ|C:\USERS\LAPTOP\DESKTOP\5 СЕМЕСТР\ОПЕРАЦИОННЫЕ СИСТЕМЫ\ПРАКТИЧЕСКИЕ РАБОТЫ\PRACTICE_1\WINDESKTOP\X64\DEBUG\WINDESKTOP.RES
C:\USERS\LAPTOP\DESKTOP\5 семестр\операционные системы\Практические работы\PRACTICE_1\WINDESKTOP\X64\DEBUG\WINDESKTOP.EXE
C:\USERS\LAPTOP\DESKTOP\5 семестр\операционные системы\Практические работы\PRACTICE_1\WINDESKTOP\X64\DEBUG\WINDESKTOP.ILK
C:\USERS\LAPTOP\DESKTOP\5 семестр\операционные системы\Практические работы\PRACTICE_1\WINDESKTOP\X64\DEBUG\WINDESKTOP.PDB
